2 87
77
15
93
35
86
92
49
21
62
27
90
59
63
26
40
26
72
36
11
68
67
29
82
30
62
23
67
35
29
2
22
58
69
67
93
56
11
42
29
73
21
19
84
37
98
24
15
70
13
26
91
80
56
73
62
70
96
81
5
25
84
27
36
5
46
29
13
57
24
95
82
45
14
67
34
64
43
50
87
8
76
78
88
84
3
51
54

2 33
60
76
68
39
12
26
86
94
39
95
70
34
78
67
1
97
2
17
92
52
56
1
80
86
41
65
89
44
19
40
29
31
17

2 72
81
75
9
27
67
56
97
53
86
65
6
83
19
24
28
71
32
29
3
19
70
68
8
15
40
49
96
23
18
45
46
51
21
55
79
88
64
28
41
50
93
0
34
64
24
14
87
56
43
91
27
65
59
36
32
51
37
28
75
7
74
21
58
95
29
37
35
93
18
28
43
11

1 30
76
4
43
63
13
38
6
40
4
18
28
88
69
17
17
96
24
43
70
83
90
99
72
25
44
90
5
39
54
86

2 83
42
64
97
7
55
4
48
11
22
28
99
43
46
68
40
22
11
10
5
1
61
30
78
5
20
36
44
26
22
65
8
16
82
58
24
37
62
24
0
36
52
99
79
50
68
71
73
31
81
30
33
94
60
63
99
81
99
96
59
73
13
68
90
95
26
66
84
40
90
84
76
42
36
7
45
56
79
18
87
12
48
72
59

2 37
10
42
87
6
1
13
72
21
55
19
99
21
4
39
11
40
67
5
28
27
50
84
58
20
24
22
69
96
81
30
84
92
72
72
50
25
85

1 100
40
42
98
13
98
90
24
90
9
81
19
36
32
55
94
4
79
69
73
76
50
55
60
42
79
84
93
5
21
67
4
13
61
54
26
59
44
2
2
6
84
21
42
68
28
89
72
8
58
98
36
8
53
48
3
33
33
48
90
54
67
46
68
29
0
46
88
97
49
90
3
33
63
97
53
92
86
25
52
96
75
88
57
29
36
60
14
21
60
4
28
27
50
48
56
2
94
97
99
43

2 3
28
3
0

2 48
38
59
51
35
34
39
92
15
27
4
29
49
64
85
29
43
35
77
0
38
71
49
89
67
88
92
95
43
44
29
90
82
40
41
69
26
32
61
42
60
17
23
61
81
9
90
25
96

2 78
34
90
26
24
57
14
68
5
58
12
86
0
46
26
94
16
52
78
29
46
90
47
70
51
80
31
93
57
27
12
86
14
55
12
90
12
79
10
69
89
74
55
41
20
33
87
88
38
66
70
84
56
17
6
60
49
37
5
59
17
18
45
83
73
58
73
37
89
83
7
78
57
14
71
29
0
59
18

